%TF.GenerationSoftware,KiCad,Pcbnew,7.0.7*%
%TF.CreationDate,2023-09-16T11:56:13+02:00*%
%TF.ProjectId,rail_15V,7261696c-5f31-4355-962e-6b696361645f,rev?*%
%TF.SameCoordinates,PX989b620PY37b6b20*%
%TF.FileFunction,Copper,L2,Bot*%
%TF.FilePolarity,Positive*%
%FSLAX45Y45*%
G04 Gerber Fmt 4.5, Leading zero omitted, Abs format (unit mm)*
G04 Created by KiCad (PCBNEW 7.0.7) date 2023-09-16 11:56:13*
%MOMM*%
%LPD*%
G01*
G04 APERTURE LIST*
%TA.AperFunction,ComponentPad*%
%ADD10R,1.700000X1.700000*%
%TD*%
%TA.AperFunction,ComponentPad*%
%ADD11C,3.600000*%
%TD*%
%TA.AperFunction,ComponentPad*%
%ADD12O,1.600000X1.600000*%
%TD*%
%TA.AperFunction,ComponentPad*%
%ADD13C,1.600000*%
%TD*%
%TA.AperFunction,ComponentPad*%
%ADD14R,1.905000X2.000000*%
%TD*%
%TA.AperFunction,ComponentPad*%
%ADD15O,1.905000X2.000000*%
%TD*%
%TA.AperFunction,ComponentPad*%
%ADD16R,2.000000X2.000000*%
%TD*%
%TA.AperFunction,Conductor*%
%ADD17C,2.000000*%
%TD*%
G04 APERTURE END LIST*
D10*
%TO.P,J3,1,Pin_1*%
%TO.N,GND*%
X-711200Y-2006600D03*
%TD*%
D11*
%TO.P,J5,1,Pin_1*%
%TO.N,GND*%
X-254000Y-2032000D03*
%TD*%
D12*
%TO.P,R1,2*%
%TO.N,Net-(U1-ADJ)*%
X-1778000Y-2184400D03*
D13*
%TO.P,R1,1*%
%TO.N,Net-(J4-Pin_1)*%
X-1778000Y-1168400D03*
%TD*%
%TO.P,R3,1*%
%TO.N,Net-(R2-Pad2)*%
X-2082800Y-2463800D03*
D12*
%TO.P,R3,2*%
%TO.N,GND*%
X-1066800Y-2463800D03*
%TD*%
D13*
%TO.P,C1,1*%
%TO.N,+36V*%
X-1066800Y-1401000D03*
%TO.P,C1,2*%
%TO.N,GND*%
X-1066800Y-1901000D03*
%TD*%
D14*
%TO.P,U1,1,ADJ*%
%TO.N,Net-(U1-ADJ)*%
X-2032000Y-729500D03*
D15*
%TO.P,U1,2,VO*%
%TO.N,Net-(J4-Pin_1)*%
X-1778000Y-729500D03*
%TO.P,U1,3,VI*%
%TO.N,+36V*%
X-1524000Y-729500D03*
%TD*%
D16*
%TO.P,J4,1,Pin_1*%
%TO.N,Net-(J4-Pin_1)*%
X-431800Y-355600D03*
%TD*%
D13*
%TO.P,R2,1*%
%TO.N,Net-(U1-ADJ)*%
X-2413000Y-1447800D03*
D12*
%TO.P,R2,2*%
%TO.N,Net-(R2-Pad2)*%
X-2413000Y-2463800D03*
%TD*%
D11*
%TO.P,J1,1,Pin_1*%
%TO.N,+36V*%
X-254000Y-1270000D03*
%TD*%
D10*
%TO.P,J2,1,Pin_1*%
%TO.N,+36V*%
X-711200Y-1244600D03*
%TD*%
D17*
%TO.N,Net-(J4-Pin_1)*%
X-431800Y-355600D02*
X-1625600Y-355600D01*
X-1625600Y-355600D02*
X-1778000Y-508000D01*
X-1778000Y-508000D02*
X-1778000Y-729500D01*
%TO.N,Net-(R2-Pad2)*%
X-2082800Y-2463800D02*
X-2413000Y-2463800D01*
%TO.N,Net-(U1-ADJ)*%
X-2413000Y-1447800D02*
X-2413000Y-1828800D01*
X-2413000Y-1828800D02*
X-2057400Y-2184400D01*
X-2057400Y-2184400D02*
X-1778000Y-2184400D01*
X-2032000Y-729500D02*
X-2202700Y-729500D01*
X-2202700Y-729500D02*
X-2413000Y-939800D01*
X-2413000Y-939800D02*
X-2413000Y-1447800D01*
%TO.N,Net-(J4-Pin_1)*%
X-1778000Y-729500D02*
X-1778000Y-1168400D01*
%TD*%
%TA.AperFunction,Conductor*%
%TO.N,GND*%
G36*
X-5746Y-1779968D02*
G01*
X-1171Y-1785249D01*
X-50Y-1790400D01*
X-50Y-2679950D01*
X-2018Y-2686654D01*
X-7299Y-2691229D01*
X-12450Y-2692350D01*
X-1257600Y-2692350D01*
X-1264304Y-2690382D01*
X-1268879Y-2685101D01*
X-1270000Y-2679950D01*
X-1270000Y-1790400D01*
X-1268032Y-1783696D01*
X-1262751Y-1779121D01*
X-1257600Y-1778000D01*
X-12450Y-1778000D01*
X-5746Y-1779968D01*
G37*
%TD.AperFunction*%
%TD*%
%TA.AperFunction,Conductor*%
%TO.N,+36V*%
G36*
X-5746Y-611569D02*
G01*
X-1171Y-616849D01*
X-50Y-622000D01*
X-50Y-1511600D01*
X-2018Y-1518304D01*
X-7299Y-1522879D01*
X-12450Y-1524000D01*
X-1638600Y-1524000D01*
X-1645304Y-1522031D01*
X-1649879Y-1516751D01*
X-1651000Y-1511600D01*
X-1651000Y-1252044D01*
X-1649031Y-1245340D01*
X-1648981Y-1245262D01*
X-1647856Y-1243540D01*
X-1645583Y-1240061D01*
X-1635594Y-1217288D01*
X-1629489Y-1193182D01*
X-1627950Y-1174607D01*
X-1627950Y-723293D01*
X-1627950Y-622000D01*
X-1625981Y-615296D01*
X-1620701Y-610721D01*
X-1615550Y-609600D01*
X-12450Y-609600D01*
X-5746Y-611569D01*
G37*
%TD.AperFunction*%
%TD*%
M02*
