(kicad_sch (version 20230121) (generator eeschema)

  (uuid 8a28617c-2a5b-4e19-b791-a825251d57a1)

  (paper "A4")

  (title_block
    (title "USB 5V to 9V boost converter")
    (date "2023-09-17")
    (rev "Rev 1.0")
  )

  (lib_symbols
    (symbol "Connector:Conn_01x02_Pin" (pin_names (offset 1.016) hide) (in_bom yes) (on_board yes)
      (property "Reference" "J" (at 0 2.54 0)
        (effects (font (size 1.27 1.27)))
      )
      (property "Value" "Conn_01x02_Pin" (at 0 -5.08 0)
        (effects (font (size 1.27 1.27)))
      )
      (property "Footprint" "" (at 0 0 0)
        (effects (font (size 1.27 1.27)) hide)
      )
      (property "Datasheet" "~" (at 0 0 0)
        (effects (font (size 1.27 1.27)) hide)
      )
      (property "ki_locked" "" (at 0 0 0)
        (effects (font (size 1.27 1.27)))
      )
      (property "ki_keywords" "connector" (at 0 0 0)
        (effects (font (size 1.27 1.27)) hide)
      )
      (property "ki_description" "Generic connector, single row, 01x02, script generated" (at 0 0 0)
        (effects (font (size 1.27 1.27)) hide)
      )
      (property "ki_fp_filters" "Connector*:*_1x??_*" (at 0 0 0)
        (effects (font (size 1.27 1.27)) hide)
      )
      (symbol "Conn_01x02_Pin_1_1"
        (polyline
          (pts
            (xy 1.27 -2.54)
            (xy 0.8636 -2.54)
          )
          (stroke (width 0.1524) (type default))
          (fill (type none))
        )
        (polyline
          (pts
            (xy 1.27 0)
            (xy 0.8636 0)
          )
          (stroke (width 0.1524) (type default))
          (fill (type none))
        )
        (rectangle (start 0.8636 -2.413) (end 0 -2.667)
          (stroke (width 0.1524) (type default))
          (fill (type outline))
        )
        (rectangle (start 0.8636 0.127) (end 0 -0.127)
          (stroke (width 0.1524) (type default))
          (fill (type outline))
        )
        (pin passive line (at 5.08 0 180) (length 3.81)
          (name "Pin_1" (effects (font (size 1.27 1.27))))
          (number "1" (effects (font (size 1.27 1.27))))
        )
        (pin passive line (at 5.08 -2.54 180) (length 3.81)
          (name "Pin_2" (effects (font (size 1.27 1.27))))
          (number "2" (effects (font (size 1.27 1.27))))
        )
      )
    )
    (symbol "Device:C" (pin_numbers hide) (pin_names (offset 0.254)) (in_bom yes) (on_board yes)
      (property "Reference" "C" (at 0.635 2.54 0)
        (effects (font (size 1.27 1.27)) (justify left))
      )
      (property "Value" "C" (at 0.635 -2.54 0)
        (effects (font (size 1.27 1.27)) (justify left))
      )
      (property "Footprint" "" (at 0.9652 -3.81 0)
        (effects (font (size 1.27 1.27)) hide)
      )
      (property "Datasheet" "~" (at 0 0 0)
        (effects (font (size 1.27 1.27)) hide)
      )
      (property "ki_keywords" "cap capacitor" (at 0 0 0)
        (effects (font (size 1.27 1.27)) hide)
      )
      (property "ki_description" "Unpolarized capacitor" (at 0 0 0)
        (effects (font (size 1.27 1.27)) hide)
      )
      (property "ki_fp_filters" "C_*" (at 0 0 0)
        (effects (font (size 1.27 1.27)) hide)
      )
      (symbol "C_0_1"
        (polyline
          (pts
            (xy -2.032 -0.762)
            (xy 2.032 -0.762)
          )
          (stroke (width 0.508) (type default))
          (fill (type none))
        )
        (polyline
          (pts
            (xy -2.032 0.762)
            (xy 2.032 0.762)
          )
          (stroke (width 0.508) (type default))
          (fill (type none))
        )
      )
      (symbol "C_1_1"
        (pin passive line (at 0 3.81 270) (length 2.794)
          (name "~" (effects (font (size 1.27 1.27))))
          (number "1" (effects (font (size 1.27 1.27))))
        )
        (pin passive line (at 0 -3.81 90) (length 2.794)
          (name "~" (effects (font (size 1.27 1.27))))
          (number "2" (effects (font (size 1.27 1.27))))
        )
      )
    )
    (symbol "Device:L_Ferrite" (pin_numbers hide) (pin_names (offset 1.016) hide) (in_bom yes) (on_board yes)
      (property "Reference" "L" (at -1.27 0 90)
        (effects (font (size 1.27 1.27)))
      )
      (property "Value" "L_Ferrite" (at 2.794 0 90)
        (effects (font (size 1.27 1.27)))
      )
      (property "Footprint" "" (at 0 0 0)
        (effects (font (size 1.27 1.27)) hide)
      )
      (property "Datasheet" "~" (at 0 0 0)
        (effects (font (size 1.27 1.27)) hide)
      )
      (property "ki_keywords" "inductor choke coil reactor magnetic" (at 0 0 0)
        (effects (font (size 1.27 1.27)) hide)
      )
      (property "ki_description" "Inductor with ferrite core" (at 0 0 0)
        (effects (font (size 1.27 1.27)) hide)
      )
      (property "ki_fp_filters" "Choke_* *Coil* Inductor_* L_*" (at 0 0 0)
        (effects (font (size 1.27 1.27)) hide)
      )
      (symbol "L_Ferrite_0_1"
        (arc (start 0 -2.54) (mid 0.6323 -1.905) (end 0 -1.27)
          (stroke (width 0) (type default))
          (fill (type none))
        )
        (arc (start 0 -1.27) (mid 0.6323 -0.635) (end 0 0)
          (stroke (width 0) (type default))
          (fill (type none))
        )
        (polyline
          (pts
            (xy 1.016 -2.794)
            (xy 1.016 -2.286)
          )
          (stroke (width 0) (type default))
          (fill (type none))
        )
        (polyline
          (pts
            (xy 1.016 -1.778)
            (xy 1.016 -1.27)
          )
          (stroke (width 0) (type default))
          (fill (type none))
        )
        (polyline
          (pts
            (xy 1.016 -0.762)
            (xy 1.016 -0.254)
          )
          (stroke (width 0) (type default))
          (fill (type none))
        )
        (polyline
          (pts
            (xy 1.016 0.254)
            (xy 1.016 0.762)
          )
          (stroke (width 0) (type default))
          (fill (type none))
        )
        (polyline
          (pts
            (xy 1.016 1.27)
            (xy 1.016 1.778)
          )
          (stroke (width 0) (type default))
          (fill (type none))
        )
        (polyline
          (pts
            (xy 1.016 2.286)
            (xy 1.016 2.794)
          )
          (stroke (width 0) (type default))
          (fill (type none))
        )
        (polyline
          (pts
            (xy 1.524 -2.286)
            (xy 1.524 -2.794)
          )
          (stroke (width 0) (type default))
          (fill (type none))
        )
        (polyline
          (pts
            (xy 1.524 -1.27)
            (xy 1.524 -1.778)
          )
          (stroke (width 0) (type default))
          (fill (type none))
        )
        (polyline
          (pts
            (xy 1.524 -0.254)
            (xy 1.524 -0.762)
          )
          (stroke (width 0) (type default))
          (fill (type none))
        )
        (polyline
          (pts
            (xy 1.524 0.762)
            (xy 1.524 0.254)
          )
          (stroke (width 0) (type default))
          (fill (type none))
        )
        (polyline
          (pts
            (xy 1.524 1.778)
            (xy 1.524 1.27)
          )
          (stroke (width 0) (type default))
          (fill (type none))
        )
        (polyline
          (pts
            (xy 1.524 2.794)
            (xy 1.524 2.286)
          )
          (stroke (width 0) (type default))
          (fill (type none))
        )
        (arc (start 0 0) (mid 0.6323 0.635) (end 0 1.27)
          (stroke (width 0) (type default))
          (fill (type none))
        )
        (arc (start 0 1.27) (mid 0.6323 1.905) (end 0 2.54)
          (stroke (width 0) (type default))
          (fill (type none))
        )
      )
      (symbol "L_Ferrite_1_1"
        (pin passive line (at 0 3.81 270) (length 1.27)
          (name "1" (effects (font (size 1.27 1.27))))
          (number "1" (effects (font (size 1.27 1.27))))
        )
        (pin passive line (at 0 -3.81 90) (length 1.27)
          (name "2" (effects (font (size 1.27 1.27))))
          (number "2" (effects (font (size 1.27 1.27))))
        )
      )
    )
    (symbol "Device:R" (pin_numbers hide) (pin_names (offset 0)) (in_bom yes) (on_board yes)
      (property "Reference" "R" (at 2.032 0 90)
        (effects (font (size 1.27 1.27)))
      )
      (property "Value" "R" (at 0 0 90)
        (effects (font (size 1.27 1.27)))
      )
      (property "Footprint" "" (at -1.778 0 90)
        (effects (font (size 1.27 1.27)) hide)
      )
      (property "Datasheet" "~" (at 0 0 0)
        (effects (font (size 1.27 1.27)) hide)
      )
      (property "ki_keywords" "R res resistor" (at 0 0 0)
        (effects (font (size 1.27 1.27)) hide)
      )
      (property "ki_description" "Resistor" (at 0 0 0)
        (effects (font (size 1.27 1.27)) hide)
      )
      (property "ki_fp_filters" "R_*" (at 0 0 0)
        (effects (font (size 1.27 1.27)) hide)
      )
      (symbol "R_0_1"
        (rectangle (start -1.016 -2.54) (end 1.016 2.54)
          (stroke (width 0.254) (type default))
          (fill (type none))
        )
      )
      (symbol "R_1_1"
        (pin passive line (at 0 3.81 270) (length 1.27)
          (name "~" (effects (font (size 1.27 1.27))))
          (number "1" (effects (font (size 1.27 1.27))))
        )
        (pin passive line (at 0 -3.81 90) (length 1.27)
          (name "~" (effects (font (size 1.27 1.27))))
          (number "2" (effects (font (size 1.27 1.27))))
        )
      )
    )
    (symbol "Diode:1N4148" (pin_numbers hide) (pin_names hide) (in_bom yes) (on_board yes)
      (property "Reference" "D" (at 0 2.54 0)
        (effects (font (size 1.27 1.27)))
      )
      (property "Value" "1N4148" (at 0 -2.54 0)
        (effects (font (size 1.27 1.27)))
      )
      (property "Footprint" "Diode_THT:D_DO-35_SOD27_P7.62mm_Horizontal" (at 0 0 0)
        (effects (font (size 1.27 1.27)) hide)
      )
      (property "Datasheet" "https://assets.nexperia.com/documents/data-sheet/1N4148_1N4448.pdf" (at 0 0 0)
        (effects (font (size 1.27 1.27)) hide)
      )
      (property "Sim.Device" "D" (at 0 0 0)
        (effects (font (size 1.27 1.27)) hide)
      )
      (property "Sim.Pins" "1=K 2=A" (at 0 0 0)
        (effects (font (size 1.27 1.27)) hide)
      )
      (property "ki_keywords" "diode" (at 0 0 0)
        (effects (font (size 1.27 1.27)) hide)
      )
      (property "ki_description" "100V 0.15A standard switching diode, DO-35" (at 0 0 0)
        (effects (font (size 1.27 1.27)) hide)
      )
      (property "ki_fp_filters" "D*DO?35*" (at 0 0 0)
        (effects (font (size 1.27 1.27)) hide)
      )
      (symbol "1N4148_0_1"
        (polyline
          (pts
            (xy -1.27 1.27)
            (xy -1.27 -1.27)
          )
          (stroke (width 0.254) (type default))
          (fill (type none))
        )
        (polyline
          (pts
            (xy 1.27 0)
            (xy -1.27 0)
          )
          (stroke (width 0) (type default))
          (fill (type none))
        )
        (polyline
          (pts
            (xy 1.27 1.27)
            (xy 1.27 -1.27)
            (xy -1.27 0)
            (xy 1.27 1.27)
          )
          (stroke (width 0.254) (type default))
          (fill (type none))
        )
      )
      (symbol "1N4148_1_1"
        (pin passive line (at -3.81 0 0) (length 2.54)
          (name "K" (effects (font (size 1.27 1.27))))
          (number "1" (effects (font (size 1.27 1.27))))
        )
        (pin passive line (at 3.81 0 180) (length 2.54)
          (name "A" (effects (font (size 1.27 1.27))))
          (number "2" (effects (font (size 1.27 1.27))))
        )
      )
    )
    (symbol "Timer:NE555P" (in_bom yes) (on_board yes)
      (property "Reference" "U" (at -10.16 8.89 0)
        (effects (font (size 1.27 1.27)) (justify left))
      )
      (property "Value" "NE555P" (at 2.54 8.89 0)
        (effects (font (size 1.27 1.27)) (justify left))
      )
      (property "Footprint" "Package_DIP:DIP-8_W7.62mm" (at 16.51 -10.16 0)
        (effects (font (size 1.27 1.27)) hide)
      )
      (property "Datasheet" "http://www.ti.com/lit/ds/symlink/ne555.pdf" (at 21.59 -10.16 0)
        (effects (font (size 1.27 1.27)) hide)
      )
      (property "ki_keywords" "single timer 555" (at 0 0 0)
        (effects (font (size 1.27 1.27)) hide)
      )
      (property "ki_description" "Precision Timers, 555 compatible,  PDIP-8" (at 0 0 0)
        (effects (font (size 1.27 1.27)) hide)
      )
      (property "ki_fp_filters" "DIP*W7.62mm*" (at 0 0 0)
        (effects (font (size 1.27 1.27)) hide)
      )
      (symbol "NE555P_0_0"
        (pin power_in line (at 0 -10.16 90) (length 2.54)
          (name "GND" (effects (font (size 1.27 1.27))))
          (number "1" (effects (font (size 1.27 1.27))))
        )
        (pin power_in line (at 0 10.16 270) (length 2.54)
          (name "VCC" (effects (font (size 1.27 1.27))))
          (number "8" (effects (font (size 1.27 1.27))))
        )
      )
      (symbol "NE555P_0_1"
        (rectangle (start -8.89 -7.62) (end 8.89 7.62)
          (stroke (width 0.254) (type default))
          (fill (type background))
        )
        (rectangle (start -8.89 -7.62) (end 8.89 7.62)
          (stroke (width 0.254) (type default))
          (fill (type background))
        )
      )
      (symbol "NE555P_1_1"
        (pin input line (at -12.7 5.08 0) (length 3.81)
          (name "TR" (effects (font (size 1.27 1.27))))
          (number "2" (effects (font (size 1.27 1.27))))
        )
        (pin output line (at 12.7 5.08 180) (length 3.81)
          (name "Q" (effects (font (size 1.27 1.27))))
          (number "3" (effects (font (size 1.27 1.27))))
        )
        (pin input inverted (at -12.7 -5.08 0) (length 3.81)
          (name "R" (effects (font (size 1.27 1.27))))
          (number "4" (effects (font (size 1.27 1.27))))
        )
        (pin input line (at -12.7 0 0) (length 3.81)
          (name "CV" (effects (font (size 1.27 1.27))))
          (number "5" (effects (font (size 1.27 1.27))))
        )
        (pin input line (at 12.7 -5.08 180) (length 3.81)
          (name "THR" (effects (font (size 1.27 1.27))))
          (number "6" (effects (font (size 1.27 1.27))))
        )
        (pin input line (at 12.7 0 180) (length 3.81)
          (name "DIS" (effects (font (size 1.27 1.27))))
          (number "7" (effects (font (size 1.27 1.27))))
        )
      )
    )
    (symbol "Transistor_FET:IRF540N" (pin_names hide) (in_bom yes) (on_board yes)
      (property "Reference" "Q" (at 6.35 1.905 0)
        (effects (font (size 1.27 1.27)) (justify left))
      )
      (property "Value" "IRF540N" (at 6.35 0 0)
        (effects (font (size 1.27 1.27)) (justify left))
      )
      (property "Footprint" "Package_TO_SOT_THT:TO-220-3_Vertical" (at 6.35 -1.905 0)
        (effects (font (size 1.27 1.27) italic) (justify left) hide)
      )
      (property "Datasheet" "http://www.irf.com/product-info/datasheets/data/irf540n.pdf" (at 0 0 0)
        (effects (font (size 1.27 1.27)) (justify left) hide)
      )
      (property "ki_keywords" "HEXFET N-Channel MOSFET" (at 0 0 0)
        (effects (font (size 1.27 1.27)) hide)
      )
      (property "ki_description" "33A Id, 100V Vds, HEXFET N-Channel MOSFET, TO-220" (at 0 0 0)
        (effects (font (size 1.27 1.27)) hide)
      )
      (property "ki_fp_filters" "TO?220*" (at 0 0 0)
        (effects (font (size 1.27 1.27)) hide)
      )
      (symbol "IRF540N_0_1"
        (polyline
          (pts
            (xy 0.254 0)
            (xy -2.54 0)
          )
          (stroke (width 0) (type default))
          (fill (type none))
        )
        (polyline
          (pts
            (xy 0.254 1.905)
            (xy 0.254 -1.905)
          )
          (stroke (width 0.254) (type default))
          (fill (type none))
        )
        (polyline
          (pts
            (xy 0.762 -1.27)
            (xy 0.762 -2.286)
          )
          (stroke (width 0.254) (type default))
          (fill (type none))
        )
        (polyline
          (pts
            (xy 0.762 0.508)
            (xy 0.762 -0.508)
          )
          (stroke (width 0.254) (type default))
          (fill (type none))
        )
        (polyline
          (pts
            (xy 0.762 2.286)
            (xy 0.762 1.27)
          )
          (stroke (width 0.254) (type default))
          (fill (type none))
        )
        (polyline
          (pts
            (xy 2.54 2.54)
            (xy 2.54 1.778)
          )
          (stroke (width 0) (type default))
          (fill (type none))
        )
        (polyline
          (pts
            (xy 2.54 -2.54)
            (xy 2.54 0)
            (xy 0.762 0)
          )
          (stroke (width 0) (type default))
          (fill (type none))
        )
        (polyline
          (pts
            (xy 0.762 -1.778)
            (xy 3.302 -1.778)
            (xy 3.302 1.778)
            (xy 0.762 1.778)
          )
          (stroke (width 0) (type default))
          (fill (type none))
        )
        (polyline
          (pts
            (xy 1.016 0)
            (xy 2.032 0.381)
            (xy 2.032 -0.381)
            (xy 1.016 0)
          )
          (stroke (width 0) (type default))
          (fill (type outline))
        )
        (polyline
          (pts
            (xy 2.794 0.508)
            (xy 2.921 0.381)
            (xy 3.683 0.381)
            (xy 3.81 0.254)
          )
          (stroke (width 0) (type default))
          (fill (type none))
        )
        (polyline
          (pts
            (xy 3.302 0.381)
            (xy 2.921 -0.254)
            (xy 3.683 -0.254)
            (xy 3.302 0.381)
          )
          (stroke (width 0) (type default))
          (fill (type none))
        )
        (circle (center 1.651 0) (radius 2.794)
          (stroke (width 0.254) (type default))
          (fill (type none))
        )
        (circle (center 2.54 -1.778) (radius 0.254)
          (stroke (width 0) (type default))
          (fill (type outline))
        )
        (circle (center 2.54 1.778) (radius 0.254)
          (stroke (width 0) (type default))
          (fill (type outline))
        )
      )
      (symbol "IRF540N_1_1"
        (pin input line (at -5.08 0 0) (length 2.54)
          (name "G" (effects (font (size 1.27 1.27))))
          (number "1" (effects (font (size 1.27 1.27))))
        )
        (pin passive line (at 2.54 5.08 270) (length 2.54)
          (name "D" (effects (font (size 1.27 1.27))))
          (number "2" (effects (font (size 1.27 1.27))))
        )
        (pin passive line (at 2.54 -5.08 90) (length 2.54)
          (name "S" (effects (font (size 1.27 1.27))))
          (number "3" (effects (font (size 1.27 1.27))))
        )
      )
    )
    (symbol "power:+5V" (power) (pin_names (offset 0)) (in_bom yes) (on_board yes)
      (property "Reference" "#PWR" (at 0 -3.81 0)
        (effects (font (size 1.27 1.27)) hide)
      )
      (property "Value" "+5V" (at 0 3.556 0)
        (effects (font (size 1.27 1.27)))
      )
      (property "Footprint" "" (at 0 0 0)
        (effects (font (size 1.27 1.27)) hide)
      )
      (property "Datasheet" "" (at 0 0 0)
        (effects (font (size 1.27 1.27)) hide)
      )
      (property "ki_keywords" "global power" (at 0 0 0)
        (effects (font (size 1.27 1.27)) hide)
      )
      (property "ki_description" "Power symbol creates a global label with name \"+5V\"" (at 0 0 0)
        (effects (font (size 1.27 1.27)) hide)
      )
      (symbol "+5V_0_1"
        (polyline
          (pts
            (xy -0.762 1.27)
            (xy 0 2.54)
          )
          (stroke (width 0) (type default))
          (fill (type none))
        )
        (polyline
          (pts
            (xy 0 0)
            (xy 0 2.54)
          )
          (stroke (width 0) (type default))
          (fill (type none))
        )
        (polyline
          (pts
            (xy 0 2.54)
            (xy 0.762 1.27)
          )
          (stroke (width 0) (type default))
          (fill (type none))
        )
      )
      (symbol "+5V_1_1"
        (pin power_in line (at 0 0 90) (length 0) hide
          (name "+5V" (effects (font (size 1.27 1.27))))
          (number "1" (effects (font (size 1.27 1.27))))
        )
      )
    )
    (symbol "power:GNDREF" (power) (pin_names (offset 0)) (in_bom yes) (on_board yes)
      (property "Reference" "#PWR" (at 0 -6.35 0)
        (effects (font (size 1.27 1.27)) hide)
      )
      (property "Value" "GNDREF" (at 0 -3.81 0)
        (effects (font (size 1.27 1.27)))
      )
      (property "Footprint" "" (at 0 0 0)
        (effects (font (size 1.27 1.27)) hide)
      )
      (property "Datasheet" "" (at 0 0 0)
        (effects (font (size 1.27 1.27)) hide)
      )
      (property "ki_keywords" "global power" (at 0 0 0)
        (effects (font (size 1.27 1.27)) hide)
      )
      (property "ki_description" "Power symbol creates a global label with name \"GNDREF\" , reference supply ground" (at 0 0 0)
        (effects (font (size 1.27 1.27)) hide)
      )
      (symbol "GNDREF_0_1"
        (polyline
          (pts
            (xy -0.635 -1.905)
            (xy 0.635 -1.905)
          )
          (stroke (width 0) (type default))
          (fill (type none))
        )
        (polyline
          (pts
            (xy -0.127 -2.54)
            (xy 0.127 -2.54)
          )
          (stroke (width 0) (type default))
          (fill (type none))
        )
        (polyline
          (pts
            (xy 0 -1.27)
            (xy 0 0)
          )
          (stroke (width 0) (type default))
          (fill (type none))
        )
        (polyline
          (pts
            (xy 1.27 -1.27)
            (xy -1.27 -1.27)
          )
          (stroke (width 0) (type default))
          (fill (type none))
        )
      )
      (symbol "GNDREF_1_1"
        (pin power_in line (at 0 0 270) (length 0) hide
          (name "GNDREF" (effects (font (size 1.27 1.27))))
          (number "1" (effects (font (size 1.27 1.27))))
        )
      )
    )
  )

  (junction (at 176.53 113.03) (diameter 0) (color 0 0 0 0)
    (uuid 0c5c7f15-e7c0-4b4f-bee6-1579d92517a8)
  )
  (junction (at 118.11 66.04) (diameter 0) (color 0 0 0 0)
    (uuid 123ae5cb-6a9d-4276-bc9c-1c6e48a06028)
  )
  (junction (at 87.63 66.04) (diameter 0) (color 0 0 0 0)
    (uuid 2786c891-3c8f-45cc-b046-f233a15bce84)
  )
  (junction (at 110.49 113.03) (diameter 0) (color 0 0 0 0)
    (uuid 2e82fdc5-f694-44a8-834a-2f25302d2db3)
  )
  (junction (at 147.32 113.03) (diameter 0) (color 0 0 0 0)
    (uuid 3b5336ed-6954-48c0-8832-d9bcc72d30d8)
  )
  (junction (at 203.2 113.03) (diameter 0) (color 0 0 0 0)
    (uuid 3cdc902b-c0b7-4f7a-979f-102f3108a995)
  )
  (junction (at 130.81 66.04) (diameter 0) (color 0 0 0 0)
    (uuid 5009cbda-559c-417d-886f-e6d35a63be4e)
  )
  (junction (at 160.02 88.9) (diameter 0) (color 0 0 0 0)
    (uuid 51f3dd3d-4e82-42ba-ba5f-89d6675df11c)
  )
  (junction (at 176.53 77.47) (diameter 0) (color 0 0 0 0)
    (uuid 6a28df11-4574-49ae-b593-c2e233cd84d3)
  )
  (junction (at 160.02 93.98) (diameter 0) (color 0 0 0 0)
    (uuid 7883c1ee-cc86-406e-b837-093aab7cdd06)
  )
  (junction (at 147.32 93.98) (diameter 0) (color 0 0 0 0)
    (uuid 7ac713cc-38d7-44bf-be1c-de750891f654)
  )
  (junction (at 130.81 113.03) (diameter 0) (color 0 0 0 0)
    (uuid 88d17cd0-bec5-4d76-9736-6d6539fb1d43)
  )
  (junction (at 87.63 113.03) (diameter 0) (color 0 0 0 0)
    (uuid 8dd1fa87-acdf-4d75-929a-322f009e311d)
  )
  (junction (at 147.32 101.6) (diameter 0) (color 0 0 0 0)
    (uuid c471ae4a-b7eb-4454-8c2f-5b835bfc1130)
  )
  (junction (at 160.02 66.04) (diameter 0) (color 0 0 0 0)
    (uuid d8663300-fac0-493a-9da7-cf35ea14c68c)
  )
  (junction (at 203.2 77.47) (diameter 0) (color 0 0 0 0)
    (uuid f575b5a1-64cb-4240-bd77-9eb360e3fe23)
  )

  (wire (pts (xy 223.52 91.44) (xy 223.52 113.03))
    (stroke (width 0) (type default))
    (uuid 01964d7e-1b0c-41a6-8ba8-ef1cbafc67dd)
  )
  (wire (pts (xy 160.02 77.47) (xy 160.02 88.9))
    (stroke (width 0) (type default))
    (uuid 0959589f-f4f6-488b-9830-c0e503c63131)
  )
  (wire (pts (xy 203.2 93.98) (xy 203.2 113.03))
    (stroke (width 0) (type default))
    (uuid 0b76073c-be06-4aa9-8bc9-a8a186e4b12f)
  )
  (wire (pts (xy 176.53 113.03) (xy 147.32 113.03))
    (stroke (width 0) (type default))
    (uuid 0be0ddb0-9b5c-4df7-b063-4e715688296b)
  )
  (wire (pts (xy 160.02 93.98) (xy 158.75 93.98))
    (stroke (width 0) (type default))
    (uuid 0effbbc4-617d-4cef-9525-2c8cdd337701)
  )
  (wire (pts (xy 114.3 83.82) (xy 114.3 101.6))
    (stroke (width 0) (type default))
    (uuid 2302ca1d-0a11-4a1a-b091-3e8b49f472e6)
  )
  (wire (pts (xy 130.81 99.06) (xy 130.81 113.03))
    (stroke (width 0) (type default))
    (uuid 28501b6e-6c6c-4ccb-aa69-79d72338bf7c)
  )
  (wire (pts (xy 130.81 66.04) (xy 130.81 78.74))
    (stroke (width 0) (type default))
    (uuid 2a0b4798-1934-4b50-b81a-4fcb340df705)
  )
  (wire (pts (xy 118.11 83.82) (xy 114.3 83.82))
    (stroke (width 0) (type default))
    (uuid 2b61d55a-2f44-49f8-95d6-f34327b44a6e)
  )
  (wire (pts (xy 176.53 77.47) (xy 176.53 78.74))
    (stroke (width 0) (type default))
    (uuid 3656a1c0-def9-458b-944d-6df77bd4a8c8)
  )
  (wire (pts (xy 87.63 113.03) (xy 110.49 113.03))
    (stroke (width 0) (type default))
    (uuid 370bb85d-11c7-4c48-9e61-a6552cc9ab4e)
  )
  (wire (pts (xy 74.93 113.03) (xy 87.63 113.03))
    (stroke (width 0) (type default))
    (uuid 3e4f0608-48b0-44eb-8a2a-8b6bf14f9a29)
  )
  (wire (pts (xy 223.52 77.47) (xy 203.2 77.47))
    (stroke (width 0) (type default))
    (uuid 42c43573-f02f-469e-bef9-597db0612d4b)
  )
  (wire (pts (xy 114.3 101.6) (xy 147.32 101.6))
    (stroke (width 0) (type default))
    (uuid 445104b3-1dc2-44c5-8f10-56fda62f2320)
  )
  (wire (pts (xy 118.11 66.04) (xy 118.11 93.98))
    (stroke (width 0) (type default))
    (uuid 47bcf39c-8972-4924-9ea3-bc5b8b457c0a)
  )
  (wire (pts (xy 143.51 88.9) (xy 160.02 88.9))
    (stroke (width 0) (type default))
    (uuid 52a984c5-2b6c-4db1-ab6c-d4712e1f8c49)
  )
  (wire (pts (xy 176.53 66.04) (xy 176.53 68.58))
    (stroke (width 0) (type default))
    (uuid 5edb2687-39f3-4082-ab52-58884f399271)
  )
  (wire (pts (xy 118.11 88.9) (xy 110.49 88.9))
    (stroke (width 0) (type default))
    (uuid 6336cc24-51b5-4864-83b5-9ec21cac5625)
  )
  (wire (pts (xy 118.11 66.04) (xy 130.81 66.04))
    (stroke (width 0) (type default))
    (uuid 6502a44f-f606-4b5e-941d-3b2d6566dc74)
  )
  (wire (pts (xy 74.93 66.04) (xy 87.63 66.04))
    (stroke (width 0) (type default))
    (uuid 68620ba9-831b-40ca-b8b9-0420605fcbf7)
  )
  (wire (pts (xy 147.32 101.6) (xy 147.32 93.98))
    (stroke (width 0) (type default))
    (uuid 688b9003-ced2-4b01-a283-2e540002d0f6)
  )
  (wire (pts (xy 223.52 113.03) (xy 203.2 113.03))
    (stroke (width 0) (type default))
    (uuid 6e58691c-6711-4dfd-8667-a0d373aa6637)
  )
  (wire (pts (xy 147.32 101.6) (xy 147.32 102.87))
    (stroke (width 0) (type default))
    (uuid 6ea57a49-f488-43e6-85fd-d9e3c1d39f78)
  )
  (wire (pts (xy 176.53 77.47) (xy 189.23 77.47))
    (stroke (width 0) (type default))
    (uuid 7a671ece-274e-425c-88b4-d5747ac49805)
  )
  (wire (pts (xy 203.2 86.36) (xy 203.2 77.47))
    (stroke (width 0) (type default))
    (uuid 7c42ea78-14c5-4a38-a411-99e640144f10)
  )
  (wire (pts (xy 87.63 106.68) (xy 87.63 113.03))
    (stroke (width 0) (type default))
    (uuid 7cc7d532-10e5-428f-ba7b-5e33c575a05b)
  )
  (wire (pts (xy 147.32 113.03) (xy 130.81 113.03))
    (stroke (width 0) (type default))
    (uuid 80ab5a43-bf57-4e36-b18c-f09acca26ac4)
  )
  (wire (pts (xy 160.02 69.85) (xy 160.02 66.04))
    (stroke (width 0) (type default))
    (uuid 8948d63a-8ca8-40f8-9a49-2036817145e9)
  )
  (wire (pts (xy 147.32 101.6) (xy 151.13 101.6))
    (stroke (width 0) (type default))
    (uuid 8e41a14e-2cc0-4a94-ae57-2f42c21616a8)
  )
  (wire (pts (xy 160.02 66.04) (xy 130.81 66.04))
    (stroke (width 0) (type default))
    (uuid 96778ff6-764e-4469-a234-26df2a4bc743)
  )
  (wire (pts (xy 74.93 68.58) (xy 74.93 113.03))
    (stroke (width 0) (type default))
    (uuid 985e3655-11ae-44f2-bf8b-5b1266a2eddd)
  )
  (wire (pts (xy 160.02 66.04) (xy 176.53 66.04))
    (stroke (width 0) (type default))
    (uuid 9e8274ad-0c87-4ef1-9b53-3e26cc86ffa0)
  )
  (wire (pts (xy 147.32 93.98) (xy 143.51 93.98))
    (stroke (width 0) (type default))
    (uuid a1da35f2-6e7c-47be-bae1-58bd17b2e10f)
  )
  (wire (pts (xy 110.49 88.9) (xy 110.49 102.87))
    (stroke (width 0) (type default))
    (uuid a21d997c-f813-4153-a8c6-4286cf8cefe1)
  )
  (wire (pts (xy 147.32 93.98) (xy 151.13 93.98))
    (stroke (width 0) (type default))
    (uuid ad708415-f577-47f0-a9b1-8511e4ee894a)
  )
  (wire (pts (xy 203.2 113.03) (xy 176.53 113.03))
    (stroke (width 0) (type default))
    (uuid b138f195-ebcc-46ba-9258-e70089f40571)
  )
  (wire (pts (xy 110.49 110.49) (xy 110.49 113.03))
    (stroke (width 0) (type default))
    (uuid b91acbfc-d4eb-48e4-a95e-3023976a5c81)
  )
  (wire (pts (xy 223.52 88.9) (xy 223.52 77.47))
    (stroke (width 0) (type default))
    (uuid be85801e-e872-40ec-8792-75900c0e5ec1)
  )
  (wire (pts (xy 110.49 113.03) (xy 130.81 113.03))
    (stroke (width 0) (type default))
    (uuid c5024fd7-17dc-42c6-a414-328ef22a0ba6)
  )
  (wire (pts (xy 143.51 83.82) (xy 168.91 83.82))
    (stroke (width 0) (type default))
    (uuid cf0f1ea8-2b03-49af-b0d5-7798e6742808)
  )
  (wire (pts (xy 87.63 66.04) (xy 87.63 99.06))
    (stroke (width 0) (type default))
    (uuid d74389d3-9622-4bf4-9e9d-22370bd0254e)
  )
  (wire (pts (xy 87.63 66.04) (xy 118.11 66.04))
    (stroke (width 0) (type default))
    (uuid daeb716b-e4b7-4a9b-93ae-d89ef7e23e9d)
  )
  (wire (pts (xy 158.75 101.6) (xy 160.02 101.6))
    (stroke (width 0) (type default))
    (uuid dcb7719a-8d6c-412f-9452-1ebbf3567841)
  )
  (wire (pts (xy 147.32 110.49) (xy 147.32 113.03))
    (stroke (width 0) (type default))
    (uuid e56b5837-3a73-490a-9109-23029af15843)
  )
  (wire (pts (xy 176.53 76.2) (xy 176.53 77.47))
    (stroke (width 0) (type default))
    (uuid e65e2170-18e9-4478-88c6-adc6b4638cab)
  )
  (wire (pts (xy 176.53 88.9) (xy 176.53 113.03))
    (stroke (width 0) (type default))
    (uuid ee710985-ee24-4e4c-ac00-e65789fe7e44)
  )
  (wire (pts (xy 160.02 101.6) (xy 160.02 93.98))
    (stroke (width 0) (type default))
    (uuid f49e502e-8e56-4ee0-a53d-a3cabefb2a56)
  )
  (wire (pts (xy 160.02 88.9) (xy 160.02 93.98))
    (stroke (width 0) (type default))
    (uuid f4c4772c-6971-41e9-8083-b730ec58c954)
  )
  (wire (pts (xy 203.2 77.47) (xy 196.85 77.47))
    (stroke (width 0) (type default))
    (uuid f80b3fe4-7619-4134-b020-c23056d0b734)
  )

  (symbol (lib_id "Device:C") (at 203.2 90.17 0) (unit 1)
    (in_bom yes) (on_board yes) (dnp no) (fields_autoplaced)
    (uuid 015dc435-3928-4908-8fc5-ab525121818c)
    (property "Reference" "C1" (at 207.01 88.9 0)
      (effects (font (size 1.27 1.27)) (justify left))
    )
    (property "Value" "10µF" (at 207.01 91.44 0)
      (effects (font (size 1.27 1.27)) (justify left))
    )
    (property "Footprint" "Capacitor_THT:C_Disc_D3.8mm_W2.6mm_P2.50mm" (at 204.1652 93.98 0)
      (effects (font (size 1.27 1.27)) hide)
    )
    (property "Datasheet" "~" (at 203.2 90.17 0)
      (effects (font (size 1.27 1.27)) hide)
    )
    (pin "1" (uuid b5ba00d4-fadb-4ffd-a455-ba4494362f21))
    (pin "2" (uuid c8ecb040-a4a9-4543-a23c-b2448fa316f4))
    (instances
      (project "usb_to_9V_supply_v2"
        (path "/8a28617c-2a5b-4e19-b791-a825251d57a1"
          (reference "C1") (unit 1)
        )
      )
    )
  )

  (symbol (lib_id "Device:C") (at 147.32 106.68 0) (unit 1)
    (in_bom yes) (on_board yes) (dnp no)
    (uuid 14e4cfa4-f71c-4735-81ba-9087f066f2f2)
    (property "Reference" "C4" (at 140.97 105.41 0)
      (effects (font (size 1.27 1.27)) (justify left))
    )
    (property "Value" "1nF" (at 140.97 107.95 0)
      (effects (font (size 1.27 1.27)) (justify left))
    )
    (property "Footprint" "Capacitor_THT:C_Disc_D3.8mm_W2.6mm_P2.50mm" (at 148.2852 110.49 0)
      (effects (font (size 1.27 1.27)) hide)
    )
    (property "Datasheet" "~" (at 147.32 106.68 0)
      (effects (font (size 1.27 1.27)) hide)
    )
    (pin "1" (uuid 915afd3d-8e4e-4209-832e-b236429dcaa0))
    (pin "2" (uuid f4ef8015-7d0a-42ba-9541-4eaa8244223a))
    (instances
      (project "usb_to_9V_supply_v2"
        (path "/8a28617c-2a5b-4e19-b791-a825251d57a1"
          (reference "C4") (unit 1)
        )
      )
    )
  )

  (symbol (lib_id "Device:C") (at 110.49 106.68 0) (unit 1)
    (in_bom yes) (on_board yes) (dnp no) (fields_autoplaced)
    (uuid 21b1b862-deec-42a6-8f7f-b21d22eca52e)
    (property "Reference" "C3" (at 114.3 105.41 0)
      (effects (font (size 1.27 1.27)) (justify left))
    )
    (property "Value" "10nF" (at 114.3 107.95 0)
      (effects (font (size 1.27 1.27)) (justify left))
    )
    (property "Footprint" "Capacitor_THT:C_Disc_D3.8mm_W2.6mm_P2.50mm" (at 111.4552 110.49 0)
      (effects (font (size 1.27 1.27)) hide)
    )
    (property "Datasheet" "~" (at 110.49 106.68 0)
      (effects (font (size 1.27 1.27)) hide)
    )
    (pin "1" (uuid 1c9d82b2-7d37-4c73-9790-48c02d699e69))
    (pin "2" (uuid 6a16dce5-919f-4759-b1ae-8f6d2e0d4e0e))
    (instances
      (project "usb_to_9V_supply_v2"
        (path "/8a28617c-2a5b-4e19-b791-a825251d57a1"
          (reference "C3") (unit 1)
        )
      )
    )
  )

  (symbol (lib_id "Diode:1N4148") (at 154.94 101.6 0) (unit 1)
    (in_bom yes) (on_board yes) (dnp no)
    (uuid 27d59023-0424-4bf1-ba7f-bbb0435668d2)
    (property "Reference" "D2" (at 154.94 99.06 0)
      (effects (font (size 1.27 1.27)))
    )
    (property "Value" "1N4148" (at 154.94 104.14 0)
      (effects (font (size 1.27 1.27)))
    )
    (property "Footprint" "Diode_THT:D_DO-35_SOD27_P7.62mm_Horizontal" (at 154.94 101.6 0)
      (effects (font (size 1.27 1.27)) hide)
    )
    (property "Datasheet" "https://assets.nexperia.com/documents/data-sheet/1N4148_1N4448.pdf" (at 154.94 101.6 0)
      (effects (font (size 1.27 1.27)) hide)
    )
    (property "Sim.Device" "D" (at 154.94 101.6 0)
      (effects (font (size 1.27 1.27)) hide)
    )
    (property "Sim.Pins" "1=K 2=A" (at 154.94 101.6 0)
      (effects (font (size 1.27 1.27)) hide)
    )
    (pin "1" (uuid b044da41-8072-4bfd-aa93-b4d40e49eff3))
    (pin "2" (uuid fcad6e38-a250-46b0-b25b-26490c662bb4))
    (instances
      (project "usb_to_9V_supply_v2"
        (path "/8a28617c-2a5b-4e19-b791-a825251d57a1"
          (reference "D2") (unit 1)
        )
      )
    )
  )

  (symbol (lib_id "Transistor_FET:IRF540N") (at 173.99 83.82 0) (unit 1)
    (in_bom yes) (on_board yes) (dnp no) (fields_autoplaced)
    (uuid 3793033d-706a-4b3e-a2ee-c8498f3e290c)
    (property "Reference" "Q1" (at 180.34 82.55 0)
      (effects (font (size 1.27 1.27)) (justify left))
    )
    (property "Value" "IRF510" (at 180.34 85.09 0)
      (effects (font (size 1.27 1.27)) (justify left))
    )
    (property "Footprint" "Package_TO_SOT_THT:TO-220-3_Vertical" (at 180.34 85.725 0)
      (effects (font (size 1.27 1.27) italic) (justify left) hide)
    )
    (property "Datasheet" "http://www.irf.com/product-info/datasheets/data/irf540n.pdf" (at 173.99 83.82 0)
      (effects (font (size 1.27 1.27)) (justify left) hide)
    )
    (pin "1" (uuid 0470fe0b-4ffd-4ecf-9792-9c5263203e91))
    (pin "2" (uuid 0afeb95e-48d4-4b3e-9df0-eeece14a7d51))
    (pin "3" (uuid a7c1bc87-291c-4f29-b464-e09af8faa341))
    (instances
      (project "usb_to_9V_supply_v2"
        (path "/8a28617c-2a5b-4e19-b791-a825251d57a1"
          (reference "Q1") (unit 1)
        )
      )
    )
  )

  (symbol (lib_id "Device:L_Ferrite") (at 176.53 72.39 0) (unit 1)
    (in_bom yes) (on_board yes) (dnp no) (fields_autoplaced)
    (uuid 388f258b-585a-42b5-8400-84f25a9c7136)
    (property "Reference" "L1" (at 179.07 71.12 0)
      (effects (font (size 1.27 1.27)) (justify left))
    )
    (property "Value" "2mH" (at 179.07 73.66 0)
      (effects (font (size 1.27 1.27)) (justify left))
    )
    (property "Footprint" "Inductor_THT:L_Radial_D10.0mm_P5.00mm_Fastron_07P" (at 176.53 72.39 0)
      (effects (font (size 1.27 1.27)) hide)
    )
    (property "Datasheet" "~" (at 176.53 72.39 0)
      (effects (font (size 1.27 1.27)) hide)
    )
    (pin "1" (uuid 80ae0ee0-4c3c-457a-8b20-c7807aabbd25))
    (pin "2" (uuid bf16ba14-67d3-49bb-90b5-244ed666d6c4))
    (instances
      (project "usb_to_9V_supply_v2"
        (path "/8a28617c-2a5b-4e19-b791-a825251d57a1"
          (reference "L1") (unit 1)
        )
      )
    )
  )

  (symbol (lib_id "Device:C") (at 87.63 102.87 0) (unit 1)
    (in_bom yes) (on_board yes) (dnp no) (fields_autoplaced)
    (uuid 3c6d3611-6021-4ae1-b34d-4235d66da543)
    (property "Reference" "C2" (at 91.44 101.6 0)
      (effects (font (size 1.27 1.27)) (justify left))
    )
    (property "Value" "10nF" (at 91.44 104.14 0)
      (effects (font (size 1.27 1.27)) (justify left))
    )
    (property "Footprint" "Capacitor_THT:C_Disc_D3.8mm_W2.6mm_P2.50mm" (at 88.5952 106.68 0)
      (effects (font (size 1.27 1.27)) hide)
    )
    (property "Datasheet" "~" (at 87.63 102.87 0)
      (effects (font (size 1.27 1.27)) hide)
    )
    (pin "1" (uuid 12486b86-6fa7-4743-92a0-7a7754917072))
    (pin "2" (uuid 9cf63692-44ef-44bc-acb7-739051cc4aba))
    (instances
      (project "usb_to_9V_supply_v2"
        (path "/8a28617c-2a5b-4e19-b791-a825251d57a1"
          (reference "C2") (unit 1)
        )
      )
    )
  )

  (symbol (lib_id "Connector:Conn_01x02_Pin") (at 69.85 66.04 0) (unit 1)
    (in_bom yes) (on_board yes) (dnp no) (fields_autoplaced)
    (uuid 48d9edb5-7c05-4e5b-a151-a0275bef4947)
    (property "Reference" "J1" (at 70.485 60.96 0)
      (effects (font (size 1.27 1.27)))
    )
    (property "Value" "5V_IN" (at 70.485 63.5 0)
      (effects (font (size 1.27 1.27)))
    )
    (property "Footprint" "Connector_PinHeader_2.54mm:PinHeader_1x02_P2.54mm_Vertical" (at 69.85 66.04 0)
      (effects (font (size 1.27 1.27)) hide)
    )
    (property "Datasheet" "~" (at 69.85 66.04 0)
      (effects (font (size 1.27 1.27)) hide)
    )
    (pin "1" (uuid c8ee44db-155b-4148-af34-a4ca4cba4ad3))
    (pin "2" (uuid 6b6f2725-61e3-43a9-88aa-14a7ed3f43ef))
    (instances
      (project "usb_to_9V_supply_v2"
        (path "/8a28617c-2a5b-4e19-b791-a825251d57a1"
          (reference "J1") (unit 1)
        )
      )
    )
  )

  (symbol (lib_id "Device:R") (at 160.02 73.66 0) (unit 1)
    (in_bom yes) (on_board yes) (dnp no) (fields_autoplaced)
    (uuid 70ed4657-720c-4e6a-962d-cdfecd412a74)
    (property "Reference" "R1" (at 162.56 72.39 0)
      (effects (font (size 1.27 1.27)) (justify left))
    )
    (property "Value" "10k" (at 162.56 74.93 0)
      (effects (font (size 1.27 1.27)) (justify left))
    )
    (property "Footprint" "Resistor_THT:R_Axial_DIN0207_L6.3mm_D2.5mm_P7.62mm_Horizontal" (at 158.242 73.66 90)
      (effects (font (size 1.27 1.27)) hide)
    )
    (property "Datasheet" "~" (at 160.02 73.66 0)
      (effects (font (size 1.27 1.27)) hide)
    )
    (pin "1" (uuid f1ced6a2-eb39-4f19-a593-963f66cc3d22))
    (pin "2" (uuid 1a57ff7e-2f08-4fa7-8f8c-4391351e3fa7))
    (instances
      (project "usb_to_9V_supply_v2"
        (path "/8a28617c-2a5b-4e19-b791-a825251d57a1"
          (reference "R1") (unit 1)
        )
      )
    )
  )

  (symbol (lib_id "Timer:NE555P") (at 130.81 88.9 0) (unit 1)
    (in_bom yes) (on_board yes) (dnp no) (fields_autoplaced)
    (uuid 9439e76a-420b-4d29-84d9-3048e8a83eef)
    (property "Reference" "U1" (at 133.0041 76.2 0)
      (effects (font (size 1.27 1.27)) (justify left))
    )
    (property "Value" "NE555P" (at 133.0041 78.74 0)
      (effects (font (size 1.27 1.27)) (justify left))
    )
    (property "Footprint" "Package_DIP:DIP-8_W7.62mm" (at 147.32 99.06 0)
      (effects (font (size 1.27 1.27)) hide)
    )
    (property "Datasheet" "http://www.ti.com/lit/ds/symlink/ne555.pdf" (at 152.4 99.06 0)
      (effects (font (size 1.27 1.27)) hide)
    )
    (pin "1" (uuid a8073614-f83a-47f1-ba4f-0a5dcf845263))
    (pin "8" (uuid 899ea9f1-eee1-47d4-8f36-791c7d0bb453))
    (pin "2" (uuid 44e1a67e-599f-4bf8-a25b-45838809ff05))
    (pin "3" (uuid 350c2f8c-a0d1-4f12-8e92-4c5da0d8acdc))
    (pin "4" (uuid 451a36de-7a0a-4312-8f25-9df04c3678f1))
    (pin "5" (uuid 40e7835e-e560-4167-9746-13e1e90a64fa))
    (pin "6" (uuid dda99f85-7597-4b94-a2ef-bec08be2da2f))
    (pin "7" (uuid d15b5946-faa7-4b24-9b30-b0b551224e02))
    (instances
      (project "usb_to_9V_supply_v2"
        (path "/8a28617c-2a5b-4e19-b791-a825251d57a1"
          (reference "U1") (unit 1)
        )
      )
    )
  )

  (symbol (lib_id "power:+5V") (at 130.81 66.04 0) (unit 1)
    (in_bom yes) (on_board yes) (dnp no) (fields_autoplaced)
    (uuid 9527f418-6a5b-4eff-bc57-1b1f412e501c)
    (property "Reference" "#PWR01" (at 130.81 69.85 0)
      (effects (font (size 1.27 1.27)) hide)
    )
    (property "Value" "+5V" (at 130.81 60.96 0)
      (effects (font (size 1.27 1.27)))
    )
    (property "Footprint" "" (at 130.81 66.04 0)
      (effects (font (size 1.27 1.27)) hide)
    )
    (property "Datasheet" "" (at 130.81 66.04 0)
      (effects (font (size 1.27 1.27)) hide)
    )
    (pin "1" (uuid 81d1d3c8-1cdd-46dd-ad0a-d4ad5dc7ff5f))
    (instances
      (project "usb_to_9V_supply_v2"
        (path "/8a28617c-2a5b-4e19-b791-a825251d57a1"
          (reference "#PWR01") (unit 1)
        )
      )
    )
  )

  (symbol (lib_id "power:GNDREF") (at 130.81 113.03 0) (unit 1)
    (in_bom yes) (on_board yes) (dnp no) (fields_autoplaced)
    (uuid acc6f46f-3bbb-4834-8ea2-c51116ec7619)
    (property "Reference" "#PWR02" (at 130.81 119.38 0)
      (effects (font (size 1.27 1.27)) hide)
    )
    (property "Value" "GNDREF" (at 130.81 118.11 0)
      (effects (font (size 1.27 1.27)))
    )
    (property "Footprint" "" (at 130.81 113.03 0)
      (effects (font (size 1.27 1.27)) hide)
    )
    (property "Datasheet" "" (at 130.81 113.03 0)
      (effects (font (size 1.27 1.27)) hide)
    )
    (pin "1" (uuid a51d253e-47b1-458c-8f6b-cd19b8ab7002))
    (instances
      (project "usb_to_9V_supply_v2"
        (path "/8a28617c-2a5b-4e19-b791-a825251d57a1"
          (reference "#PWR02") (unit 1)
        )
      )
    )
  )

  (symbol (lib_id "Connector:Conn_01x02_Pin") (at 228.6 88.9 0) (mirror y) (unit 1)
    (in_bom yes) (on_board yes) (dnp no)
    (uuid b7d3cbdd-fb11-46a6-a84a-3b232c25344a)
    (property "Reference" "J2" (at 229.87 91.44 0)
      (effects (font (size 1.27 1.27)) (justify right))
    )
    (property "Value" "9V_OUT" (at 229.87 88.9 0)
      (effects (font (size 1.27 1.27)) (justify right))
    )
    (property "Footprint" "Connector_PinHeader_2.54mm:PinHeader_1x02_P2.54mm_Vertical" (at 228.6 88.9 0)
      (effects (font (size 1.27 1.27)) hide)
    )
    (property "Datasheet" "~" (at 228.6 88.9 0)
      (effects (font (size 1.27 1.27)) hide)
    )
    (pin "1" (uuid 02837ada-e56b-4753-9648-1e29e7c5596f))
    (pin "2" (uuid 007f05ba-b718-462e-a8f3-fc990775b62c))
    (instances
      (project "usb_to_9V_supply_v2"
        (path "/8a28617c-2a5b-4e19-b791-a825251d57a1"
          (reference "J2") (unit 1)
        )
      )
    )
  )

  (symbol (lib_id "Diode:1N4148") (at 193.04 77.47 180) (unit 1)
    (in_bom yes) (on_board yes) (dnp no) (fields_autoplaced)
    (uuid c14444af-9f5d-419f-b64c-6ee83a754922)
    (property "Reference" "D1" (at 193.04 71.12 0)
      (effects (font (size 1.27 1.27)))
    )
    (property "Value" "1N4148" (at 193.04 73.66 0)
      (effects (font (size 1.27 1.27)))
    )
    (property "Footprint" "Diode_THT:D_DO-35_SOD27_P7.62mm_Horizontal" (at 193.04 77.47 0)
      (effects (font (size 1.27 1.27)) hide)
    )
    (property "Datasheet" "https://assets.nexperia.com/documents/data-sheet/1N4148_1N4448.pdf" (at 193.04 77.47 0)
      (effects (font (size 1.27 1.27)) hide)
    )
    (property "Sim.Device" "D" (at 193.04 77.47 0)
      (effects (font (size 1.27 1.27)) hide)
    )
    (property "Sim.Pins" "1=K 2=A" (at 193.04 77.47 0)
      (effects (font (size 1.27 1.27)) hide)
    )
    (pin "1" (uuid 28f94737-47f5-47ec-9c49-e876f2d0e0d5))
    (pin "2" (uuid 0ad97ecf-00fd-450a-ad97-04c14b72b289))
    (instances
      (project "usb_to_9V_supply_v2"
        (path "/8a28617c-2a5b-4e19-b791-a825251d57a1"
          (reference "D1") (unit 1)
        )
      )
    )
  )

  (symbol (lib_id "Device:R") (at 154.94 93.98 90) (unit 1)
    (in_bom yes) (on_board yes) (dnp no)
    (uuid fbd3c7af-1f6b-47ac-a8e2-069d1853a593)
    (property "Reference" "R2" (at 154.94 93.98 90)
      (effects (font (size 1.27 1.27)))
    )
    (property "Value" "10k" (at 154.94 91.44 90)
      (effects (font (size 1.27 1.27)))
    )
    (property "Footprint" "Resistor_THT:R_Axial_DIN0207_L6.3mm_D2.5mm_P7.62mm_Horizontal" (at 154.94 95.758 90)
      (effects (font (size 1.27 1.27)) hide)
    )
    (property "Datasheet" "~" (at 154.94 93.98 0)
      (effects (font (size 1.27 1.27)) hide)
    )
    (pin "1" (uuid f9806717-5cc1-4b2a-b395-33b7d8dbd4aa))
    (pin "2" (uuid 8179872c-5ac9-44d6-999f-6cd937521638))
    (instances
      (project "usb_to_9V_supply_v2"
        (path "/8a28617c-2a5b-4e19-b791-a825251d57a1"
          (reference "R2") (unit 1)
        )
      )
    )
  )

  (sheet_instances
    (path "/" (page "1"))
  )
)
